<?xml version="1.0" encoding="UTF-8"?>
<svg xmlns="http://www.w3.org/2000/svg" xmlns:xlink="http://www.w3.org/1999/xlink" width="225" height="337.5" viewBox="0 0 225 337.5">
<defs>
<g>
<g id="glyph-0-0">
<path d="M 1.25 0 L 1.25 -25 L 11.203125 -25 L 11.203125 0 Z M 2.484375 -1.25 L 9.96875 -1.25 L 9.96875 -23.75 L 2.484375 -23.75 Z M 2.484375 -1.25 "/>
</g>
<g id="glyph-0-1">
<path d="M 37.640625 -19.0625 C 37.640625 -17.925781 37.234375 -17.1875 36.421875 -16.84375 C 35.941406 -16.625 35.050781 -16.515625 33.75 -16.515625 C 32.25 -16.515625 31.1875 -16.632812 30.5625 -16.875 C 29.53125 -17.28125 28.976562 -18.09375 28.90625 -19.3125 C 30.675781 -19.019531 32.460938 -18.878906 34.265625 -18.890625 C 35.378906 -18.890625 36.503906 -18.945312 37.640625 -19.0625 Z M 37.640625 -19.953125 C 36.785156 -19.835938 35.953125 -19.78125 35.140625 -19.78125 C 34.785156 -19.78125 32.554688 -19.9375 28.453125 -20.25 C 28.304688 -21.4375 27.421875 -22.175781 25.796875 -22.46875 L 25.875 -19.84375 C 27.425781 -18.34375 28.851562 -15.816406 30.15625 -12.265625 C 31.425781 -8.828125 32.0625 -5.96875 32.0625 -3.6875 C 32.0625 -1.488281 31.644531 -0.390625 30.8125 -0.390625 L 8.765625 -0.390625 C 7.722656 -0.390625 7.203125 -1.300781 7.203125 -3.125 C 7.203125 -5.394531 7.851562 -8.34375 9.15625 -11.96875 C 10.519531 -15.726562 11.96875 -18.351562 13.5 -19.84375 L 13.5 -22.46875 C 11.90625 -22.1875 11.03125 -21.445312 10.875 -20.25 C 9.5 -19.9375 7.648438 -19.78125 5.328125 -19.78125 C 3.710938 -19.78125 2.5 -19.835938 1.6875 -19.953125 C 1.820312 -23.421875 2.882812 -25.785156 4.875 -27.046875 C 6.195312 -27.898438 8.582031 -28.566406 12.03125 -29.046875 C 14.613281 -29.378906 17.164062 -29.546875 19.6875 -29.546875 C 26.820312 -29.546875 31.742188 -28.710938 34.453125 -27.046875 C 36.503906 -25.796875 37.566406 -23.429688 37.640625 -19.953125 Z M 24.515625 -22.734375 C 22.722656 -23.242188 21.085938 -23.5 19.609375 -23.5 C 18.203125 -23.5 16.566406 -23.242188 14.703125 -22.734375 L 15.59375 -20.484375 L 23.65625 -20.484375 Z M 23.6875 -8.328125 C 25.039062 -9.179688 25.71875 -10.320312 25.71875 -11.75 C 25.71875 -13.175781 25.039062 -14.3125 23.6875 -15.15625 C 22.582031 -15.875 21.25 -16.234375 19.6875 -16.234375 C 18.164062 -16.234375 16.828125 -15.863281 15.671875 -15.125 C 14.296875 -14.257812 13.609375 -13.132812 13.609375 -11.75 C 13.609375 -10.332031 14.296875 -9.191406 15.671875 -8.328125 C 16.828125 -7.585938 18.160156 -7.21875 19.671875 -7.21875 C 21.191406 -7.21875 22.53125 -7.585938 23.6875 -8.328125 Z M 28.765625 -3.046875 L 29.125 -3.421875 L 28.765625 -3.796875 L 10.6875 -3.796875 L 10.3125 -3.421875 L 10.6875 -3.046875 Z M 24.796875 -13.484375 C 24.796875 -12.898438 24.492188 -12.609375 23.890625 -12.609375 C 23.253906 -12.609375 22.9375 -12.898438 22.9375 -13.484375 C 22.9375 -14.078125 23.253906 -14.375 23.890625 -14.375 C 24.492188 -14.375 24.796875 -14.078125 24.796875 -13.484375 Z M 22.875 -14.78125 C 22.875 -14.175781 22.5625 -13.875 21.9375 -13.875 C 21.332031 -13.875 21.03125 -14.175781 21.03125 -14.78125 C 21.03125 -15.363281 21.332031 -15.65625 21.9375 -15.65625 C 22.5625 -15.65625 22.875 -15.363281 22.875 -14.78125 Z M 25.375 -11.328125 C 25.375 -10.734375 25.0625 -10.4375 24.4375 -10.4375 C 23.84375 -10.4375 23.546875 -10.734375 23.546875 -11.328125 C 23.546875 -11.898438 23.84375 -12.1875 24.4375 -12.1875 C 25.0625 -12.1875 25.375 -11.898438 25.375 -11.328125 Z M 20.0625 -15.15625 C 20.0625 -14.5625 19.742188 -14.265625 19.109375 -14.265625 C 18.515625 -14.265625 18.21875 -14.5625 18.21875 -15.15625 C 18.21875 -15.726562 18.515625 -16.015625 19.109375 -16.015625 C 19.742188 -16.015625 20.0625 -15.726562 20.0625 -15.15625 Z M 24.109375 -9.296875 C 24.109375 -8.703125 23.800781 -8.40625 23.1875 -8.40625 C 22.582031 -8.40625 22.28125 -8.703125 22.28125 -9.296875 C 22.28125 -9.890625 22.582031 -10.1875 23.1875 -10.1875 C 23.800781 -10.1875 24.109375 -9.890625 24.109375 -9.296875 Z M 23.4375 -11.796875 C 23.4375 -11.015625 22.984375 -10.335938 22.078125 -9.765625 C 21.296875 -9.285156 20.472656 -9.046875 19.609375 -9.046875 C 18.753906 -9.046875 17.957031 -9.285156 17.21875 -9.765625 C 16.332031 -10.304688 15.890625 -10.984375 15.890625 -11.796875 C 15.890625 -12.585938 16.367188 -13.207031 17.328125 -13.65625 C 18.085938 -14.007812 18.894531 -14.1875 19.75 -14.1875 C 20.601562 -14.1875 21.394531 -14 22.125 -13.625 C 23 -13.195312 23.4375 -12.585938 23.4375 -11.796875 Z M 17.46875 -14.265625 C 17.46875 -13.691406 17.171875 -13.40625 16.578125 -13.40625 C 15.953125 -13.40625 15.640625 -13.691406 15.640625 -14.265625 C 15.640625 -14.859375 15.953125 -15.15625 16.578125 -15.15625 C 17.171875 -15.15625 17.46875 -14.859375 17.46875 -14.265625 Z M 21.828125 -8.265625 C 21.828125 -7.660156 21.515625 -7.359375 20.890625 -7.359375 C 20.296875 -7.359375 20 -7.660156 20 -8.265625 C 20 -8.835938 20.296875 -9.125 20.890625 -9.125 C 21.515625 -9.125 21.828125 -8.835938 21.828125 -8.265625 Z M 15.890625 -12.375 C 15.890625 -11.800781 15.59375 -11.515625 15 -11.515625 C 14.375 -11.515625 14.0625 -11.800781 14.0625 -12.375 C 14.0625 -12.988281 14.375 -13.296875 15 -13.296875 C 15.59375 -13.296875 15.890625 -12.988281 15.890625 -12.375 Z M 18.859375 -8.40625 C 18.859375 -7.832031 18.5625 -7.546875 17.96875 -7.546875 C 17.34375 -7.546875 17.03125 -7.832031 17.03125 -8.40625 C 17.03125 -9 17.34375 -9.296875 17.96875 -9.296875 C 18.5625 -9.296875 18.859375 -9 18.859375 -8.40625 Z M 16.421875 -9.71875 C 16.421875 -9.144531 16.125 -8.859375 15.53125 -8.859375 C 14.90625 -8.859375 14.59375 -9.144531 14.59375 -9.71875 C 14.59375 -10.320312 14.90625 -10.625 15.53125 -10.625 C 16.125 -10.625 16.421875 -10.320312 16.421875 -9.71875 Z M 10.453125 -19.3125 C 10.378906 -18.09375 9.757812 -17.269531 8.59375 -16.84375 C 7.925781 -16.625 6.828125 -16.515625 5.296875 -16.515625 C 4.128906 -16.515625 3.300781 -16.648438 2.8125 -16.921875 C 2.082031 -17.296875 1.71875 -18.007812 1.71875 -19.0625 C 2.6875 -18.96875 3.675781 -18.921875 4.6875 -18.921875 C 6.65625 -18.921875 8.578125 -19.050781 10.453125 -19.3125 Z M 10.453125 -19.3125 "/>
</g>
<g id="glyph-1-0">
<path d="M 1.6875 0 L 1.6875 -12.859375 L 9.09375 -12.859375 L 9.09375 0 Z M 2.609375 -0.921875 L 8.171875 -0.921875 L 8.171875 -11.9375 L 2.609375 -11.9375 Z M 2.609375 -0.921875 "/>
</g>
<g id="glyph-1-1">
<path d="M 9.015625 0 L 1.625 0 L 1.625 -12.859375 L 9.015625 -12.859375 L 9.015625 -10.625 L 4.34375 -10.625 L 4.34375 -7.796875 L 8.6875 -7.796875 L 8.6875 -5.5625 L 4.34375 -5.5625 L 4.34375 -2.25 L 9.015625 -2.25 Z M 9.015625 0 "/>
</g>
<g id="glyph-1-2">
<path d="M 4.515625 0.1875 C 3.421875 0.1875 2.53125 -0.238281 1.84375 -1.09375 C 1.15625 -1.957031 0.8125 -3.222656 0.8125 -4.890625 C 0.8125 -6.578125 1.15625 -7.851562 1.84375 -8.71875 C 2.539062 -9.582031 3.457031 -10.015625 4.59375 -10.015625 C 5.0625 -10.015625 5.472656 -9.945312 5.828125 -9.8125 C 6.191406 -9.6875 6.5 -9.515625 6.75 -9.296875 C 7.007812 -9.085938 7.234375 -8.84375 7.421875 -8.5625 L 7.5 -8.5625 C 7.46875 -8.757812 7.425781 -9.039062 7.375 -9.40625 C 7.332031 -9.769531 7.3125 -10.144531 7.3125 -10.53125 L 7.3125 -13.6875 L 9.984375 -13.6875 L 9.984375 0 L 7.9375 0 L 7.421875 -1.28125 L 7.3125 -1.28125 C 7.144531 -1.007812 6.929688 -0.765625 6.671875 -0.546875 C 6.410156 -0.328125 6.101562 -0.148438 5.75 -0.015625 C 5.40625 0.117188 4.992188 0.1875 4.515625 0.1875 Z M 5.453125 -1.96875 C 6.191406 -1.96875 6.710938 -2.1875 7.015625 -2.625 C 7.316406 -3.0625 7.472656 -3.71875 7.484375 -4.59375 L 7.484375 -4.875 C 7.484375 -5.832031 7.335938 -6.5625 7.046875 -7.0625 C 6.753906 -7.570312 6.210938 -7.828125 5.421875 -7.828125 C 4.828125 -7.828125 4.363281 -7.570312 4.03125 -7.0625 C 3.695312 -6.550781 3.53125 -5.816406 3.53125 -4.859375 C 3.53125 -3.898438 3.695312 -3.175781 4.03125 -2.6875 C 4.363281 -2.207031 4.835938 -1.96875 5.453125 -1.96875 Z M 5.453125 -1.96875 "/>
</g>
<g id="glyph-1-3">
<path d="M 4.09375 -9.828125 L 4.09375 0 L 1.40625 0 L 1.40625 -9.828125 Z M 2.75 -13.6875 C 3.144531 -13.6875 3.488281 -13.59375 3.78125 -13.40625 C 4.070312 -13.21875 4.21875 -12.867188 4.21875 -12.359375 C 4.21875 -11.867188 4.070312 -11.523438 3.78125 -11.328125 C 3.488281 -11.140625 3.144531 -11.046875 2.75 -11.046875 C 2.34375 -11.046875 2 -11.140625 1.71875 -11.328125 C 1.4375 -11.523438 1.296875 -11.867188 1.296875 -12.359375 C 1.296875 -12.867188 1.4375 -13.21875 1.71875 -13.40625 C 2 -13.59375 2.34375 -13.6875 2.75 -13.6875 Z M 2.75 -13.6875 "/>
</g>
<g id="glyph-1-4">
<path d="M 5.546875 -1.96875 C 5.847656 -1.96875 6.132812 -1.992188 6.40625 -2.046875 C 6.6875 -2.109375 6.960938 -2.179688 7.234375 -2.265625 L 7.234375 -0.265625 C 6.941406 -0.148438 6.582031 -0.046875 6.15625 0.046875 C 5.738281 0.140625 5.273438 0.1875 4.765625 0.1875 C 4.179688 0.1875 3.65625 0.09375 3.1875 -0.09375 C 2.726562 -0.289062 2.363281 -0.625 2.09375 -1.09375 C 1.820312 -1.570312 1.6875 -2.234375 1.6875 -3.078125 L 1.6875 -7.8125 L 0.421875 -7.8125 L 0.421875 -8.953125 L 1.890625 -9.84375 L 2.671875 -11.921875 L 4.375 -11.921875 L 4.375 -9.828125 L 7.125 -9.828125 L 7.125 -7.8125 L 4.375 -7.8125 L 4.375 -3.078125 C 4.375 -2.703125 4.476562 -2.421875 4.6875 -2.234375 C 4.90625 -2.054688 5.191406 -1.96875 5.546875 -1.96875 Z M 5.546875 -1.96875 "/>
</g>
<g id="glyph-1-5">
</g>
<g id="glyph-1-6">
<path d="M 7.078125 -10.765625 C 6.554688 -10.765625 6.09375 -10.660156 5.6875 -10.453125 C 5.289062 -10.253906 4.953125 -9.960938 4.671875 -9.578125 C 4.398438 -9.203125 4.195312 -8.742188 4.0625 -8.203125 C 3.925781 -7.660156 3.859375 -7.054688 3.859375 -6.390625 C 3.859375 -5.472656 3.96875 -4.691406 4.1875 -4.046875 C 4.40625 -3.410156 4.753906 -2.925781 5.234375 -2.59375 C 5.710938 -2.257812 6.328125 -2.09375 7.078125 -2.09375 C 7.597656 -2.09375 8.117188 -2.148438 8.640625 -2.265625 C 9.171875 -2.390625 9.738281 -2.554688 10.34375 -2.765625 L 10.34375 -0.484375 C 9.78125 -0.253906 9.222656 -0.0859375 8.671875 0.015625 C 8.117188 0.128906 7.503906 0.1875 6.828125 0.1875 C 5.503906 0.1875 4.410156 -0.0820312 3.546875 -0.625 C 2.691406 -1.175781 2.0625 -1.945312 1.65625 -2.9375 C 1.25 -3.925781 1.046875 -5.082031 1.046875 -6.40625 C 1.046875 -7.375 1.175781 -8.265625 1.4375 -9.078125 C 1.707031 -9.890625 2.09375 -10.585938 2.59375 -11.171875 C 3.101562 -11.765625 3.734375 -12.222656 4.484375 -12.546875 C 5.234375 -12.867188 6.097656 -13.03125 7.078125 -13.03125 C 7.710938 -13.03125 8.347656 -12.945312 8.984375 -12.78125 C 9.628906 -12.625 10.25 -12.40625 10.84375 -12.125 L 9.953125 -9.921875 C 9.472656 -10.148438 8.988281 -10.347656 8.5 -10.515625 C 8.019531 -10.679688 7.546875 -10.765625 7.078125 -10.765625 Z M 7.078125 -10.765625 "/>
</g>
<g id="glyph-1-7">
<path d="M 10.328125 -4.9375 C 10.328125 -4.113281 10.21875 -3.382812 10 -2.75 C 9.78125 -2.113281 9.460938 -1.578125 9.046875 -1.140625 C 8.628906 -0.703125 8.125 -0.367188 7.53125 -0.140625 C 6.945312 0.078125 6.285156 0.1875 5.546875 0.1875 C 4.859375 0.1875 4.222656 0.078125 3.640625 -0.140625 C 3.054688 -0.367188 2.554688 -0.703125 2.140625 -1.140625 C 1.722656 -1.578125 1.394531 -2.113281 1.15625 -2.75 C 0.925781 -3.382812 0.8125 -4.113281 0.8125 -4.9375 C 0.8125 -6.019531 1.003906 -6.9375 1.390625 -7.6875 C 1.773438 -8.4375 2.328125 -9.007812 3.046875 -9.40625 C 3.765625 -9.8125 4.613281 -10.015625 5.59375 -10.015625 C 6.519531 -10.015625 7.335938 -9.8125 8.046875 -9.40625 C 8.753906 -9.007812 9.3125 -8.4375 9.71875 -7.6875 C 10.125 -6.9375 10.328125 -6.019531 10.328125 -4.9375 Z M 3.546875 -4.9375 C 3.546875 -4.28125 3.613281 -3.734375 3.75 -3.296875 C 3.882812 -2.859375 4.101562 -2.53125 4.40625 -2.3125 C 4.707031 -2.09375 5.097656 -1.984375 5.578125 -1.984375 C 6.054688 -1.984375 6.441406 -2.09375 6.734375 -2.3125 C 7.035156 -2.53125 7.253906 -2.859375 7.390625 -3.296875 C 7.523438 -3.734375 7.59375 -4.28125 7.59375 -4.9375 C 7.59375 -5.582031 7.523438 -6.117188 7.390625 -6.546875 C 7.253906 -6.984375 7.035156 -7.304688 6.734375 -7.515625 C 6.429688 -7.734375 6.039062 -7.84375 5.5625 -7.84375 C 4.851562 -7.84375 4.335938 -7.597656 4.015625 -7.109375 C 3.703125 -6.628906 3.546875 -5.90625 3.546875 -4.9375 Z M 3.546875 -4.9375 "/>
</g>
<g id="glyph-1-8">
<path d="M 6.984375 -10.015625 C 8.035156 -10.015625 8.878906 -9.726562 9.515625 -9.15625 C 10.148438 -8.582031 10.46875 -7.664062 10.46875 -6.40625 L 10.46875 0 L 7.796875 0 L 7.796875 -5.734375 C 7.796875 -6.441406 7.664062 -6.972656 7.40625 -7.328125 C 7.15625 -7.679688 6.753906 -7.859375 6.203125 -7.859375 C 5.390625 -7.859375 4.832031 -7.578125 4.53125 -7.015625 C 4.238281 -6.460938 4.09375 -5.664062 4.09375 -4.625 L 4.09375 0 L 1.40625 0 L 1.40625 -9.828125 L 3.453125 -9.828125 L 3.8125 -8.5625 L 3.953125 -8.5625 C 4.171875 -8.90625 4.4375 -9.179688 4.75 -9.390625 C 5.0625 -9.597656 5.410156 -9.753906 5.796875 -9.859375 C 6.179688 -9.960938 6.578125 -10.015625 6.984375 -10.015625 Z M 6.984375 -10.015625 "/>
</g>
<g id="glyph-1-9">
<path d="M 5.4375 -10.03125 C 6.757812 -10.03125 7.769531 -9.742188 8.46875 -9.171875 C 9.164062 -8.597656 9.515625 -7.722656 9.515625 -6.546875 L 9.515625 0 L 7.65625 0 L 7.125 -1.328125 L 7.0625 -1.328125 C 6.78125 -0.984375 6.492188 -0.695312 6.203125 -0.46875 C 5.910156 -0.238281 5.570312 -0.0703125 5.1875 0.03125 C 4.8125 0.132812 4.347656 0.1875 3.796875 0.1875 C 3.222656 0.1875 2.703125 0.078125 2.234375 -0.140625 C 1.773438 -0.367188 1.410156 -0.710938 1.140625 -1.171875 C 0.878906 -1.640625 0.75 -2.226562 0.75 -2.9375 C 0.75 -3.976562 1.113281 -4.75 1.84375 -5.25 C 2.582031 -5.75 3.679688 -6.019531 5.140625 -6.0625 L 6.859375 -6.125 L 6.859375 -6.546875 C 6.859375 -7.066406 6.722656 -7.445312 6.453125 -7.6875 C 6.179688 -7.925781 5.804688 -8.046875 5.328125 -8.046875 C 4.847656 -8.046875 4.378906 -7.972656 3.921875 -7.828125 C 3.460938 -7.691406 3.007812 -7.523438 2.5625 -7.328125 L 1.671875 -9.140625 C 2.203125 -9.421875 2.785156 -9.640625 3.421875 -9.796875 C 4.066406 -9.953125 4.738281 -10.03125 5.4375 -10.03125 Z M 5.8125 -4.515625 C 4.945312 -4.492188 4.347656 -4.335938 4.015625 -4.046875 C 3.679688 -3.765625 3.515625 -3.390625 3.515625 -2.921875 C 3.515625 -2.503906 3.632812 -2.207031 3.875 -2.03125 C 4.113281 -1.863281 4.425781 -1.78125 4.8125 -1.78125 C 5.382812 -1.78125 5.867188 -1.953125 6.265625 -2.296875 C 6.660156 -2.640625 6.859375 -3.125 6.859375 -3.75 L 6.859375 -4.546875 Z M 5.8125 -4.515625 "/>
</g>
<g id="glyph-1-10">
<path d="M 5.40625 0.1875 C 4.425781 0.1875 3.59375 0.0078125 2.90625 -0.34375 C 2.226562 -0.695312 1.707031 -1.242188 1.34375 -1.984375 C 0.988281 -2.734375 0.8125 -3.691406 0.8125 -4.859375 C 0.8125 -6.054688 1.015625 -7.03125 1.421875 -7.78125 C 1.828125 -8.539062 2.394531 -9.101562 3.125 -9.46875 C 3.851562 -9.832031 4.691406 -10.015625 5.640625 -10.015625 C 6.304688 -10.015625 6.890625 -9.945312 7.390625 -9.8125 C 7.890625 -9.675781 8.320312 -9.519531 8.6875 -9.34375 L 7.90625 -7.265625 C 7.476562 -7.441406 7.082031 -7.582031 6.71875 -7.6875 C 6.351562 -7.789062 5.992188 -7.84375 5.640625 -7.84375 C 5.171875 -7.84375 4.78125 -7.734375 4.46875 -7.515625 C 4.15625 -7.296875 3.921875 -6.96875 3.765625 -6.53125 C 3.617188 -6.09375 3.546875 -5.539062 3.546875 -4.875 C 3.546875 -4.226562 3.625 -3.691406 3.78125 -3.265625 C 3.945312 -2.835938 4.1875 -2.519531 4.5 -2.3125 C 4.8125 -2.101562 5.191406 -2 5.640625 -2 C 6.203125 -2 6.695312 -2.070312 7.125 -2.21875 C 7.5625 -2.375 7.984375 -2.582031 8.390625 -2.84375 L 8.390625 -0.5625 C 7.984375 -0.289062 7.550781 -0.0976562 7.09375 0.015625 C 6.644531 0.128906 6.082031 0.1875 5.40625 0.1875 Z M 5.40625 0.1875 "/>
</g>
<g id="glyph-1-11">
<path d="M 1.625 0 L 1.625 -12.859375 L 4.34375 -12.859375 L 4.34375 -2.25 L 9.5625 -2.25 L 9.5625 0 Z M 1.625 0 "/>
</g>
<g id="glyph-1-12">
<path d="M 4.09375 0 L 1.40625 0 L 1.40625 -13.6875 L 4.09375 -13.6875 Z M 4.09375 0 "/>
</g>
<g id="glyph-1-13">
<path d="M 12.9375 -10.015625 C 14.050781 -10.015625 14.894531 -9.726562 15.46875 -9.15625 C 16.039062 -8.582031 16.328125 -7.664062 16.328125 -6.40625 L 16.328125 0 L 13.640625 0 L 13.640625 -5.734375 C 13.640625 -6.441406 13.519531 -6.972656 13.28125 -7.328125 C 13.039062 -7.679688 12.671875 -7.859375 12.171875 -7.859375 C 11.460938 -7.859375 10.957031 -7.609375 10.65625 -7.109375 C 10.351562 -6.609375 10.203125 -5.882812 10.203125 -4.9375 L 10.203125 0 L 7.53125 0 L 7.53125 -5.734375 C 7.53125 -6.203125 7.472656 -6.59375 7.359375 -6.90625 C 7.253906 -7.21875 7.09375 -7.453125 6.875 -7.609375 C 6.65625 -7.773438 6.378906 -7.859375 6.046875 -7.859375 C 5.554688 -7.859375 5.164062 -7.734375 4.875 -7.484375 C 4.59375 -7.234375 4.390625 -6.867188 4.265625 -6.390625 C 4.148438 -5.910156 4.09375 -5.320312 4.09375 -4.625 L 4.09375 0 L 1.40625 0 L 1.40625 -9.828125 L 3.453125 -9.828125 L 3.8125 -8.5625 L 3.953125 -8.5625 C 4.160156 -8.90625 4.414062 -9.179688 4.71875 -9.390625 C 5.019531 -9.597656 5.351562 -9.753906 5.71875 -9.859375 C 6.082031 -9.960938 6.453125 -10.015625 6.828125 -10.015625 C 7.546875 -10.015625 8.15625 -9.894531 8.65625 -9.65625 C 9.164062 -9.425781 9.550781 -9.0625 9.8125 -8.5625 L 10.046875 -8.5625 C 10.347656 -9.070312 10.765625 -9.441406 11.296875 -9.671875 C 11.828125 -9.898438 12.375 -10.015625 12.9375 -10.015625 Z M 12.9375 -10.015625 "/>
</g>
<g id="glyph-1-14">
<path d="M 5.453125 -10.015625 C 6.367188 -10.015625 7.148438 -9.835938 7.796875 -9.484375 C 8.453125 -9.140625 8.957031 -8.632812 9.3125 -7.96875 C 9.675781 -7.3125 9.859375 -6.503906 9.859375 -5.546875 L 9.859375 -4.25 L 3.53125 -4.25 C 3.550781 -3.488281 3.773438 -2.890625 4.203125 -2.453125 C 4.628906 -2.023438 5.21875 -1.8125 5.96875 -1.8125 C 6.613281 -1.8125 7.191406 -1.875 7.703125 -2 C 8.222656 -2.132812 8.757812 -2.332031 9.3125 -2.59375 L 9.3125 -0.515625 C 8.832031 -0.273438 8.320312 -0.0976562 7.78125 0.015625 C 7.25 0.128906 6.601562 0.1875 5.84375 0.1875 C 4.863281 0.1875 3.992188 0.00390625 3.234375 -0.359375 C 2.484375 -0.734375 1.890625 -1.289062 1.453125 -2.03125 C 1.023438 -2.78125 0.8125 -3.71875 0.8125 -4.84375 C 0.8125 -5.988281 1.003906 -6.941406 1.390625 -7.703125 C 1.785156 -8.472656 2.328125 -9.050781 3.015625 -9.4375 C 3.710938 -9.820312 4.523438 -10.015625 5.453125 -10.015625 Z M 5.46875 -8.09375 C 4.957031 -8.09375 4.53125 -7.925781 4.1875 -7.59375 C 3.84375 -7.257812 3.640625 -6.738281 3.578125 -6.03125 L 7.34375 -6.03125 C 7.34375 -6.425781 7.273438 -6.78125 7.140625 -7.09375 C 7.003906 -7.40625 6.796875 -7.648438 6.515625 -7.828125 C 6.242188 -8.003906 5.894531 -8.09375 5.46875 -8.09375 Z M 5.46875 -8.09375 "/>
</g>
<g id="glyph-1-15">
<path d="M 1.03125 -1.265625 C 1.03125 -1.816406 1.175781 -2.203125 1.46875 -2.421875 C 1.769531 -2.640625 2.140625 -2.75 2.578125 -2.75 C 2.992188 -2.75 3.351562 -2.640625 3.65625 -2.421875 C 3.957031 -2.203125 4.109375 -1.816406 4.109375 -1.265625 C 4.109375 -0.734375 3.957031 -0.347656 3.65625 -0.109375 C 3.351562 0.117188 2.992188 0.234375 2.578125 0.234375 C 2.140625 0.234375 1.769531 0.117188 1.46875 -0.109375 C 1.175781 -0.347656 1.03125 -0.734375 1.03125 -1.265625 Z M 1.03125 -8.515625 C 1.03125 -9.066406 1.175781 -9.453125 1.46875 -9.671875 C 1.769531 -9.898438 2.140625 -10.015625 2.578125 -10.015625 C 2.992188 -10.015625 3.351562 -9.898438 3.65625 -9.671875 C 3.957031 -9.453125 4.109375 -9.066406 4.109375 -8.515625 C 4.109375 -7.984375 3.957031 -7.597656 3.65625 -7.359375 C 3.351562 -7.128906 2.992188 -7.015625 2.578125 -7.015625 C 2.140625 -7.015625 1.769531 -7.128906 1.46875 -7.359375 C 1.175781 -7.597656 1.03125 -7.984375 1.03125 -8.515625 Z M 1.03125 -8.515625 "/>
</g>
<g id="glyph-1-16">
<path d="M 9.203125 -3.5625 C 9.203125 -2.8125 9.015625 -2.148438 8.640625 -1.578125 C 8.265625 -1.015625 7.722656 -0.578125 7.015625 -0.265625 C 6.316406 0.0351562 5.46875 0.1875 4.46875 0.1875 C 4.019531 0.1875 3.582031 0.15625 3.15625 0.09375 C 2.726562 0.03125 2.316406 -0.0546875 1.921875 -0.171875 C 1.535156 -0.285156 1.171875 -0.425781 0.828125 -0.59375 L 0.828125 -3.125 C 1.441406 -2.863281 2.070312 -2.617188 2.71875 -2.390625 C 3.375 -2.171875 4.03125 -2.0625 4.6875 -2.0625 C 5.125 -2.0625 5.476562 -2.125 5.75 -2.25 C 6.019531 -2.375 6.21875 -2.535156 6.34375 -2.734375 C 6.46875 -2.941406 6.53125 -3.175781 6.53125 -3.4375 C 6.53125 -3.757812 6.421875 -4.035156 6.203125 -4.265625 C 5.984375 -4.492188 5.6875 -4.707031 5.3125 -4.90625 C 4.9375 -5.101562 4.507812 -5.316406 4.03125 -5.546875 C 3.726562 -5.691406 3.398438 -5.863281 3.046875 -6.0625 C 2.703125 -6.257812 2.367188 -6.503906 2.046875 -6.796875 C 1.734375 -7.085938 1.472656 -7.441406 1.265625 -7.859375 C 1.066406 -8.285156 0.96875 -8.789062 0.96875 -9.375 C 0.96875 -10.144531 1.144531 -10.800781 1.5 -11.34375 C 1.851562 -11.894531 2.359375 -12.3125 3.015625 -12.59375 C 3.671875 -12.882812 4.441406 -13.03125 5.328125 -13.03125 C 6.003906 -13.03125 6.644531 -12.953125 7.25 -12.796875 C 7.851562 -12.640625 8.484375 -12.414062 9.140625 -12.125 L 8.265625 -10.015625 C 7.671875 -10.253906 7.140625 -10.4375 6.671875 -10.5625 C 6.203125 -10.695312 5.722656 -10.765625 5.234375 -10.765625 C 4.898438 -10.765625 4.613281 -10.707031 4.375 -10.59375 C 4.132812 -10.488281 3.953125 -10.335938 3.828125 -10.140625 C 3.703125 -9.953125 3.640625 -9.726562 3.640625 -9.46875 C 3.640625 -9.164062 3.726562 -8.910156 3.90625 -8.703125 C 4.082031 -8.492188 4.347656 -8.289062 4.703125 -8.09375 C 5.066406 -7.90625 5.519531 -7.679688 6.0625 -7.421875 C 6.726562 -7.109375 7.289062 -6.78125 7.75 -6.4375 C 8.207031 -6.101562 8.5625 -5.707031 8.8125 -5.25 C 9.070312 -4.800781 9.203125 -4.238281 9.203125 -3.5625 Z M 9.203125 -3.5625 "/>
</g>
<g id="glyph-1-17">
<path d="M 4.09375 -10.890625 C 4.09375 -10.410156 4.078125 -9.945312 4.046875 -9.5 C 4.015625 -9.0625 3.984375 -8.75 3.953125 -8.5625 L 4.109375 -8.5625 C 4.316406 -8.90625 4.566406 -9.179688 4.859375 -9.390625 C 5.148438 -9.597656 5.472656 -9.753906 5.828125 -9.859375 C 6.179688 -9.960938 6.554688 -10.015625 6.953125 -10.015625 C 7.660156 -10.015625 8.273438 -9.882812 8.796875 -9.625 C 9.328125 -9.375 9.738281 -8.984375 10.03125 -8.453125 C 10.320312 -7.929688 10.46875 -7.25 10.46875 -6.40625 L 10.46875 0 L 7.796875 0 L 7.796875 -5.734375 C 7.796875 -6.441406 7.664062 -6.972656 7.40625 -7.328125 C 7.144531 -7.679688 6.742188 -7.859375 6.203125 -7.859375 C 5.671875 -7.859375 5.25 -7.734375 4.9375 -7.484375 C 4.632812 -7.234375 4.414062 -6.867188 4.28125 -6.390625 C 4.15625 -5.910156 4.09375 -5.320312 4.09375 -4.625 L 4.09375 0 L 1.40625 0 L 1.40625 -13.6875 L 4.09375 -13.6875 Z M 4.09375 -10.890625 "/>
</g>
<g id="glyph-1-18">
<path d="M 6.890625 -10.015625 C 7.023438 -10.015625 7.179688 -10.003906 7.359375 -9.984375 C 7.535156 -9.972656 7.679688 -9.957031 7.796875 -9.9375 L 7.59375 -7.421875 C 7.507812 -7.441406 7.382812 -7.457031 7.21875 -7.46875 C 7.0625 -7.488281 6.921875 -7.5 6.796875 -7.5 C 6.453125 -7.5 6.117188 -7.453125 5.796875 -7.359375 C 5.472656 -7.273438 5.179688 -7.132812 4.921875 -6.9375 C 4.660156 -6.75 4.457031 -6.492188 4.3125 -6.171875 C 4.164062 -5.859375 4.09375 -5.46875 4.09375 -5 L 4.09375 0 L 1.40625 0 L 1.40625 -9.828125 L 3.4375 -9.828125 L 3.828125 -8.171875 L 3.953125 -8.171875 C 4.148438 -8.503906 4.390625 -8.804688 4.671875 -9.078125 C 4.960938 -9.359375 5.296875 -9.582031 5.671875 -9.75 C 6.054688 -9.925781 6.460938 -10.015625 6.890625 -10.015625 Z M 6.890625 -10.015625 "/>
</g>
<g id="glyph-1-19">
<path d="M 8.734375 -3.4375 C 8.679688 -3.644531 8.609375 -3.945312 8.515625 -4.34375 C 8.429688 -4.75 8.332031 -5.179688 8.21875 -5.640625 C 8.113281 -6.109375 8.015625 -6.535156 7.921875 -6.921875 C 7.828125 -7.304688 7.757812 -7.59375 7.71875 -7.78125 L 7.65625 -7.78125 C 7.613281 -7.59375 7.546875 -7.304688 7.453125 -6.921875 C 7.367188 -6.535156 7.269531 -6.109375 7.15625 -5.640625 C 7.050781 -5.179688 6.953125 -4.742188 6.859375 -4.328125 C 6.765625 -3.921875 6.691406 -3.613281 6.640625 -3.40625 L 5.84375 0 L 2.96875 0 L 0.1875 -9.828125 L 2.84375 -9.828125 L 3.984375 -5.46875 C 4.066406 -5.164062 4.140625 -4.804688 4.203125 -4.390625 C 4.265625 -3.972656 4.328125 -3.566406 4.390625 -3.171875 C 4.453125 -2.785156 4.492188 -2.476562 4.515625 -2.25 L 4.59375 -2.25 C 4.601562 -2.414062 4.625 -2.640625 4.65625 -2.921875 C 4.695312 -3.203125 4.742188 -3.492188 4.796875 -3.796875 C 4.847656 -4.097656 4.894531 -4.367188 4.9375 -4.609375 C 4.976562 -4.859375 5.015625 -5.023438 5.046875 -5.109375 L 6.25 -9.828125 L 9.203125 -9.828125 L 10.34375 -5.109375 C 10.394531 -4.941406 10.453125 -4.671875 10.515625 -4.296875 C 10.585938 -3.929688 10.648438 -3.554688 10.703125 -3.171875 C 10.753906 -2.785156 10.78125 -2.476562 10.78125 -2.25 L 10.859375 -2.25 C 10.878906 -2.457031 10.914062 -2.753906 10.96875 -3.140625 C 11.03125 -3.523438 11.097656 -3.929688 11.171875 -4.359375 C 11.253906 -4.796875 11.34375 -5.164062 11.4375 -5.46875 L 12.59375 -9.828125 L 15.234375 -9.828125 L 12.40625 0 L 9.484375 0 Z M 8.734375 -3.4375 "/>
</g>
<g id="glyph-1-20">
<path d="M 8.265625 -2.921875 C 8.265625 -2.253906 8.109375 -1.691406 7.796875 -1.234375 C 7.484375 -0.773438 7.015625 -0.421875 6.390625 -0.171875 C 5.765625 0.0664062 4.988281 0.1875 4.0625 0.1875 C 3.382812 0.1875 2.796875 0.140625 2.296875 0.046875 C 1.804688 -0.046875 1.316406 -0.191406 0.828125 -0.390625 L 0.828125 -2.609375 C 1.359375 -2.367188 1.925781 -2.171875 2.53125 -2.015625 C 3.144531 -1.859375 3.6875 -1.78125 4.15625 -1.78125 C 4.6875 -1.78125 5.0625 -1.859375 5.28125 -2.015625 C 5.5 -2.171875 5.609375 -2.375 5.609375 -2.625 C 5.609375 -2.789062 5.5625 -2.941406 5.46875 -3.078125 C 5.382812 -3.210938 5.191406 -3.363281 4.890625 -3.53125 C 4.597656 -3.695312 4.128906 -3.910156 3.484375 -4.171875 C 2.878906 -4.441406 2.378906 -4.703125 1.984375 -4.953125 C 1.585938 -5.210938 1.289062 -5.523438 1.09375 -5.890625 C 0.90625 -6.253906 0.8125 -6.710938 0.8125 -7.265625 C 0.8125 -8.179688 1.164062 -8.867188 1.875 -9.328125 C 2.582031 -9.785156 3.523438 -10.015625 4.703125 -10.015625 C 5.304688 -10.015625 5.882812 -9.953125 6.4375 -9.828125 C 6.988281 -9.703125 7.5625 -9.503906 8.15625 -9.234375 L 7.34375 -7.3125 C 7.019531 -7.457031 6.707031 -7.582031 6.40625 -7.6875 C 6.101562 -7.789062 5.8125 -7.875 5.53125 -7.9375 C 5.25 -8 4.957031 -8.03125 4.65625 -8.03125 C 4.257812 -8.03125 3.960938 -7.972656 3.765625 -7.859375 C 3.566406 -7.753906 3.46875 -7.59375 3.46875 -7.375 C 3.46875 -7.21875 3.519531 -7.078125 3.625 -6.953125 C 3.726562 -6.828125 3.925781 -6.691406 4.21875 -6.546875 C 4.507812 -6.410156 4.945312 -6.21875 5.53125 -5.96875 C 6.09375 -5.75 6.578125 -5.515625 6.984375 -5.265625 C 7.390625 -5.015625 7.703125 -4.707031 7.921875 -4.34375 C 8.148438 -3.976562 8.265625 -3.503906 8.265625 -2.921875 Z M 8.265625 -2.921875 "/>
</g>
<g id="glyph-2-0">
<path d="M 1.6875 0 L 1.6875 -12.859375 L 9.09375 -12.859375 L 9.09375 0 Z M 2.609375 -0.921875 L 8.171875 -0.921875 L 8.171875 -11.9375 L 2.609375 -11.9375 Z M 2.609375 -0.921875 "/>
</g>
<g id="glyph-2-1">
<path d="M -0.078125 3.421875 C -0.359375 3.421875 -0.609375 3.398438 -0.828125 3.359375 C -1.046875 3.316406 -1.238281 3.257812 -1.40625 3.1875 L -1.40625 1.8125 C -1.207031 1.863281 -1 1.90625 -0.78125 1.9375 C -0.570312 1.976562 -0.347656 2 -0.109375 2 C 0.191406 2 0.476562 1.9375 0.75 1.8125 C 1.019531 1.695312 1.238281 1.488281 1.40625 1.1875 C 1.570312 0.882812 1.65625 0.460938 1.65625 -0.078125 L 1.65625 -12.859375 L 3.28125 -12.859375 L 3.28125 -0.203125 C 3.28125 0.628906 3.140625 1.3125 2.859375 1.84375 C 2.585938 2.375 2.195312 2.769531 1.6875 3.03125 C 1.1875 3.289062 0.597656 3.421875 -0.078125 3.421875 Z M -0.078125 3.421875 "/>
</g>
<g id="glyph-2-2">
<path d="M 5.1875 -9.8125 C 6.363281 -9.8125 7.234375 -9.550781 7.796875 -9.03125 C 8.359375 -8.519531 8.640625 -7.695312 8.640625 -6.5625 L 8.640625 0 L 7.484375 0 L 7.1875 -1.375 L 7.109375 -1.375 C 6.835938 -1.019531 6.550781 -0.722656 6.25 -0.484375 C 5.957031 -0.253906 5.625 -0.0859375 5.25 0.015625 C 4.875 0.128906 4.414062 0.1875 3.875 0.1875 C 3.289062 0.1875 2.769531 0.0820312 2.3125 -0.125 C 1.851562 -0.332031 1.488281 -0.644531 1.21875 -1.0625 C 0.957031 -1.488281 0.828125 -2.03125 0.828125 -2.6875 C 0.828125 -3.644531 1.203125 -4.382812 1.953125 -4.90625 C 2.710938 -5.425781 3.878906 -5.710938 5.453125 -5.765625 L 7.09375 -5.8125 L 7.09375 -6.390625 C 7.09375 -7.191406 6.914062 -7.75 6.5625 -8.0625 C 6.21875 -8.375 5.726562 -8.53125 5.09375 -8.53125 C 4.59375 -8.53125 4.113281 -8.453125 3.65625 -8.296875 C 3.195312 -8.148438 2.769531 -7.984375 2.375 -7.796875 L 1.890625 -8.984375 C 2.304688 -9.210938 2.800781 -9.40625 3.375 -9.5625 C 3.957031 -9.726562 4.5625 -9.8125 5.1875 -9.8125 Z M 5.65625 -4.65625 C 4.457031 -4.613281 3.625 -4.421875 3.15625 -4.078125 C 2.695312 -3.742188 2.46875 -3.269531 2.46875 -2.65625 C 2.46875 -2.125 2.628906 -1.726562 2.953125 -1.46875 C 3.285156 -1.21875 3.710938 -1.09375 4.234375 -1.09375 C 5.046875 -1.09375 5.722656 -1.316406 6.265625 -1.765625 C 6.804688 -2.222656 7.078125 -2.921875 7.078125 -3.859375 L 7.078125 -4.71875 Z M 5.65625 -4.65625 "/>
</g>
<g id="glyph-2-3">
<path d="M 6.171875 -9.828125 C 7.328125 -9.828125 8.195312 -9.546875 8.78125 -8.984375 C 9.375 -8.429688 9.671875 -7.53125 9.671875 -6.28125 L 9.671875 0 L 8.09375 0 L 8.09375 -6.171875 C 8.09375 -6.953125 7.921875 -7.535156 7.578125 -7.921875 C 7.234375 -8.304688 6.6875 -8.5 5.9375 -8.5 C 4.875 -8.5 4.132812 -8.195312 3.71875 -7.59375 C 3.3125 -7 3.109375 -6.132812 3.109375 -5 L 3.109375 0 L 1.53125 0 L 1.53125 -9.640625 L 2.8125 -9.640625 L 3.046875 -8.328125 L 3.125 -8.328125 C 3.34375 -8.671875 3.609375 -8.953125 3.921875 -9.171875 C 4.242188 -9.390625 4.597656 -9.550781 4.984375 -9.65625 C 5.367188 -9.769531 5.765625 -9.828125 6.171875 -9.828125 Z M 6.171875 -9.828125 "/>
</g>
<g id="glyph-2-4">
<path d="M 5.25 -9.828125 C 6.082031 -9.828125 6.796875 -9.644531 7.390625 -9.28125 C 7.984375 -8.925781 8.4375 -8.421875 8.75 -7.765625 C 9.070312 -7.109375 9.234375 -6.34375 9.234375 -5.46875 L 9.234375 -4.515625 L 2.625 -4.515625 C 2.644531 -3.421875 2.921875 -2.585938 3.453125 -2.015625 C 3.992188 -1.453125 4.742188 -1.171875 5.703125 -1.171875 C 6.316406 -1.171875 6.859375 -1.226562 7.328125 -1.34375 C 7.804688 -1.457031 8.296875 -1.625 8.796875 -1.84375 L 8.796875 -0.453125 C 8.304688 -0.234375 7.820312 -0.0703125 7.34375 0.03125 C 6.863281 0.132812 6.296875 0.1875 5.640625 0.1875 C 4.722656 0.1875 3.910156 0 3.203125 -0.375 C 2.503906 -0.75 1.957031 -1.304688 1.5625 -2.046875 C 1.175781 -2.785156 0.984375 -3.6875 0.984375 -4.75 C 0.984375 -5.8125 1.160156 -6.71875 1.515625 -7.46875 C 1.867188 -8.226562 2.367188 -8.8125 3.015625 -9.21875 C 3.660156 -9.625 4.40625 -9.828125 5.25 -9.828125 Z M 5.234375 -8.53125 C 4.484375 -8.53125 3.890625 -8.285156 3.453125 -7.796875 C 3.015625 -7.316406 2.75 -6.644531 2.65625 -5.78125 L 7.578125 -5.78125 C 7.578125 -6.332031 7.492188 -6.8125 7.328125 -7.21875 C 7.160156 -7.625 6.90625 -7.941406 6.5625 -8.171875 C 6.21875 -8.410156 5.773438 -8.53125 5.234375 -8.53125 Z M 5.234375 -8.53125 "/>
</g>
<g id="glyph-2-5">
</g>
<g id="glyph-2-6">
<path d="M 11.9375 0 L 10.046875 0 L 3.171875 -10.671875 L 3.09375 -10.671875 C 3.101562 -10.453125 3.117188 -10.210938 3.140625 -9.953125 C 3.160156 -9.691406 3.175781 -9.40625 3.1875 -9.09375 C 3.195312 -8.789062 3.207031 -8.476562 3.21875 -8.15625 C 3.226562 -7.832031 3.234375 -7.507812 3.234375 -7.1875 L 3.234375 0 L 1.75 0 L 1.75 -12.859375 L 3.625 -12.859375 L 10.46875 -2.21875 L 10.546875 -2.21875 C 10.535156 -2.363281 10.523438 -2.5625 10.515625 -2.8125 C 10.503906 -3.070312 10.488281 -3.359375 10.46875 -3.671875 C 10.457031 -3.992188 10.445312 -4.320312 10.4375 -4.65625 C 10.425781 -5 10.421875 -5.3125 10.421875 -5.59375 L 10.421875 -12.859375 L 11.9375 -12.859375 Z M 11.9375 0 "/>
</g>
<g id="glyph-2-7">
<path d="M 0.015625 -9.640625 L 1.703125 -9.640625 L 3.796875 -4.15625 C 3.921875 -3.832031 4.03125 -3.519531 4.125 -3.21875 C 4.226562 -2.914062 4.320312 -2.625 4.40625 -2.34375 C 4.488281 -2.0625 4.554688 -1.789062 4.609375 -1.53125 L 4.6875 -1.53125 C 4.75 -1.832031 4.859375 -2.222656 5.015625 -2.703125 C 5.171875 -3.191406 5.335938 -3.679688 5.515625 -4.171875 L 7.46875 -9.640625 L 9.1875 -9.640625 L 5.015625 1.328125 C 4.796875 1.929688 4.53125 2.457031 4.21875 2.90625 C 3.914062 3.351562 3.546875 3.695312 3.109375 3.9375 C 2.671875 4.1875 2.140625 4.3125 1.515625 4.3125 C 1.222656 4.3125 0.96875 4.296875 0.75 4.265625 C 0.539062 4.242188 0.359375 4.210938 0.203125 4.171875 L 0.203125 2.921875 C 0.328125 2.941406 0.484375 2.960938 0.671875 2.984375 C 0.859375 3.015625 1.054688 3.03125 1.265625 3.03125 C 1.628906 3.03125 1.945312 2.957031 2.21875 2.8125 C 2.488281 2.675781 2.71875 2.476562 2.90625 2.21875 C 3.101562 1.96875 3.269531 1.664062 3.40625 1.3125 L 3.90625 0.03125 Z M 0.015625 -9.640625 "/>
</g>
<g id="glyph-2-8">
<path d="M 12.109375 -9.828125 C 13.203125 -9.828125 14.019531 -9.546875 14.5625 -8.984375 C 15.101562 -8.429688 15.375 -7.53125 15.375 -6.28125 L 15.375 0 L 13.8125 0 L 13.8125 -6.203125 C 13.8125 -6.960938 13.648438 -7.535156 13.328125 -7.921875 C 13.015625 -8.304688 12.519531 -8.5 11.84375 -8.5 C 10.90625 -8.5 10.234375 -8.226562 9.828125 -7.6875 C 9.429688 -7.144531 9.234375 -6.359375 9.234375 -5.328125 L 9.234375 0 L 7.671875 0 L 7.671875 -6.203125 C 7.671875 -6.710938 7.597656 -7.132812 7.453125 -7.46875 C 7.304688 -7.8125 7.085938 -8.066406 6.796875 -8.234375 C 6.515625 -8.410156 6.144531 -8.5 5.6875 -8.5 C 5.039062 -8.5 4.53125 -8.363281 4.15625 -8.09375 C 3.78125 -7.820312 3.507812 -7.425781 3.34375 -6.90625 C 3.1875 -6.394531 3.109375 -5.757812 3.109375 -5 L 3.109375 0 L 1.53125 0 L 1.53125 -9.640625 L 2.8125 -9.640625 L 3.046875 -8.328125 L 3.125 -8.328125 C 3.332031 -8.671875 3.582031 -8.953125 3.875 -9.171875 C 4.164062 -9.390625 4.492188 -9.550781 4.859375 -9.65625 C 5.222656 -9.769531 5.59375 -9.828125 5.96875 -9.828125 C 6.71875 -9.828125 7.34375 -9.691406 7.84375 -9.421875 C 8.34375 -9.160156 8.703125 -8.753906 8.921875 -8.203125 L 9.015625 -8.203125 C 9.335938 -8.753906 9.773438 -9.160156 10.328125 -9.421875 C 10.890625 -9.691406 11.484375 -9.828125 12.109375 -9.828125 Z M 12.109375 -9.828125 "/>
</g>
<g id="glyph-2-9">
<path d="M 9.03125 -3.4375 C 9.03125 -2.664062 8.84375 -2.015625 8.46875 -1.484375 C 8.101562 -0.953125 7.570312 -0.539062 6.875 -0.25 C 6.1875 0.0390625 5.378906 0.1875 4.453125 0.1875 C 3.960938 0.1875 3.5 0.160156 3.0625 0.109375 C 2.625 0.0546875 2.222656 -0.0078125 1.859375 -0.09375 C 1.503906 -0.1875 1.191406 -0.300781 0.921875 -0.4375 L 0.921875 -1.984375 C 1.347656 -1.785156 1.878906 -1.609375 2.515625 -1.453125 C 3.160156 -1.296875 3.828125 -1.21875 4.515625 -1.21875 C 5.148438 -1.21875 5.679688 -1.300781 6.109375 -1.46875 C 6.546875 -1.644531 6.875 -1.882812 7.09375 -2.1875 C 7.3125 -2.5 7.421875 -2.867188 7.421875 -3.296875 C 7.421875 -3.710938 7.328125 -4.0625 7.140625 -4.34375 C 6.960938 -4.632812 6.65625 -4.90625 6.21875 -5.15625 C 5.78125 -5.40625 5.171875 -5.664062 4.390625 -5.9375 C 3.835938 -6.144531 3.351562 -6.363281 2.9375 -6.59375 C 2.53125 -6.832031 2.1875 -7.097656 1.90625 -7.390625 C 1.632812 -7.691406 1.425781 -8.035156 1.28125 -8.421875 C 1.144531 -8.804688 1.078125 -9.25 1.078125 -9.75 C 1.078125 -10.4375 1.25 -11.019531 1.59375 -11.5 C 1.945312 -11.988281 2.429688 -12.363281 3.046875 -12.625 C 3.671875 -12.894531 4.382812 -13.03125 5.1875 -13.03125 C 5.894531 -13.03125 6.539062 -12.960938 7.125 -12.828125 C 7.71875 -12.703125 8.253906 -12.53125 8.734375 -12.3125 L 8.21875 -10.921875 C 7.78125 -11.117188 7.300781 -11.28125 6.78125 -11.40625 C 6.257812 -11.539062 5.710938 -11.609375 5.140625 -11.609375 C 4.609375 -11.609375 4.160156 -11.53125 3.796875 -11.375 C 3.441406 -11.21875 3.171875 -11 2.984375 -10.71875 C 2.804688 -10.4375 2.71875 -10.109375 2.71875 -9.734375 C 2.71875 -9.304688 2.804688 -8.945312 2.984375 -8.65625 C 3.171875 -8.363281 3.46875 -8.101562 3.875 -7.875 C 4.28125 -7.65625 4.832031 -7.410156 5.53125 -7.140625 C 6.28125 -6.867188 6.914062 -6.570312 7.4375 -6.25 C 7.957031 -5.9375 8.351562 -5.554688 8.625 -5.109375 C 8.894531 -4.671875 9.03125 -4.113281 9.03125 -3.4375 Z M 9.03125 -3.4375 "/>
</g>
<g id="glyph-2-10">
<path d="M 3.65625 0 L 0 -9.640625 L 1.6875 -9.640625 L 3.75 -3.953125 C 3.84375 -3.691406 3.941406 -3.398438 4.046875 -3.078125 C 4.160156 -2.753906 4.257812 -2.441406 4.34375 -2.140625 C 4.425781 -1.847656 4.484375 -1.601562 4.515625 -1.40625 L 4.59375 -1.40625 C 4.632812 -1.601562 4.703125 -1.851562 4.796875 -2.15625 C 4.890625 -2.457031 4.992188 -2.769531 5.109375 -3.09375 C 5.222656 -3.414062 5.320312 -3.703125 5.40625 -3.953125 L 7.453125 -9.640625 L 9.140625 -9.640625 L 5.46875 0 Z M 3.65625 0 "/>
</g>
<g id="glyph-3-0">
<path d="M 2.109375 0 L 2.109375 -16.0625 L 11.359375 -16.0625 L 11.359375 0 Z M 3.265625 -1.140625 L 10.21875 -1.140625 L 10.21875 -14.921875 L 3.265625 -14.921875 Z M 3.265625 -1.140625 "/>
</g>
<g id="glyph-3-1">
<path d="M 13.09375 0 L 10.796875 0 L 6.546875 -6.96875 L 2.234375 0 L 0.09375 0 L 5.421875 -8.375 L 0.421875 -16.0625 L 2.671875 -16.0625 L 6.609375 -9.765625 L 10.578125 -16.0625 L 12.71875 -16.0625 L 7.734375 -8.421875 Z M 13.09375 0 "/>
</g>
</g>
</defs>
<path fill-rule="nonzero" fill="rgb(100%, 100%, 100%)" fill-opacity="1" stroke-width="1" stroke-linecap="round" stroke-linejoin="round" stroke="rgb(0%, 0%, 0%)" stroke-opacity="1" stroke-miterlimit="10" d="M 0 0 L 150 0 L 150 225 L 0 225 Z M 0 0 " transform="matrix(1.5, 0, 0, 1.5, 0, 0)"/>
<g fill="rgb(0%, 0%, 0%)" fill-opacity="1">
<use xlink:href="#glyph-0-1" x="15" y="41"/>
</g>
<g fill="rgb(0%, 0%, 0%)" fill-opacity="1">
<use xlink:href="#glyph-1-1" x="69" y="39.03125"/>
<use xlink:href="#glyph-1-2" x="79.5" y="39.03125"/>
<use xlink:href="#glyph-1-3" x="91.5" y="39.03125"/>
<use xlink:href="#glyph-1-4" x="97.5" y="39.03125"/>
<use xlink:href="#glyph-1-5" x="105" y="39.03125"/>
<use xlink:href="#glyph-1-6" x="109.5" y="39.03125"/>
<use xlink:href="#glyph-1-7" x="121.5" y="39.03125"/>
<use xlink:href="#glyph-1-8" x="132" y="39.03125"/>
<use xlink:href="#glyph-1-4" x="144" y="39.03125"/>
<use xlink:href="#glyph-1-9" x="151.5" y="39.03125"/>
<use xlink:href="#glyph-1-10" x="162" y="39.03125"/>
<use xlink:href="#glyph-1-4" x="171" y="39.03125"/>
</g>
<g fill="rgb(0%, 0%, 0%)" fill-opacity="1">
<use xlink:href="#glyph-1-11" x="15" y="83.335938"/>
<use xlink:href="#glyph-1-7" x="25.5" y="83.335938"/>
<use xlink:href="#glyph-1-10" x="36" y="83.335938"/>
<use xlink:href="#glyph-1-9" x="45" y="83.335938"/>
<use xlink:href="#glyph-1-12" x="55.5" y="83.335938"/>
<use xlink:href="#glyph-1-5" x="61.5" y="83.335938"/>
<use xlink:href="#glyph-1-8" x="66" y="83.335938"/>
<use xlink:href="#glyph-1-9" x="78" y="83.335938"/>
<use xlink:href="#glyph-1-13" x="88.5" y="83.335938"/>
<use xlink:href="#glyph-1-14" x="106.5" y="83.335938"/>
<use xlink:href="#glyph-1-15" x="117" y="83.335938"/>
</g>
<path fill-rule="evenodd" fill="rgb(100%, 100%, 100%)" fill-opacity="1" stroke-width="1" stroke-linecap="round" stroke-linejoin="round" stroke="rgb(0%, 0%, 0%)" stroke-opacity="1" stroke-miterlimit="10" d="M 105 69.072917 C 107.760417 69.072917 110 71.3125 110 74.072917 L 110 90.416667 C 110 93.179688 107.760417 95.416667 105 95.416667 L 15 95.416667 C 12.239583 95.416667 10 93.179688 10 90.416667 L 10 74.072917 C 10 71.3125 12.239583 69.072917 15 69.072917 Z M 105 69.072917 " transform="matrix(1.5, 0, 0, 1.5, 0, 0)"/>
<path fill-rule="nonzero" fill="rgb(42.352941%, 70.588235%, 93.333333%)" fill-opacity="1" stroke-width="1" stroke-linecap="round" stroke-linejoin="round" stroke="rgb(42.352941%, 70.588235%, 93.333333%)" stroke-opacity="1" stroke-miterlimit="10" d="M 15 74.072917 L 68 74.072917 L 68 90.416667 L 15 90.416667 Z M 15 74.072917 " transform="matrix(1.5, 0, 0, 1.5, 0, 0)"/>
<g fill="rgb(100%, 100%, 100%)" fill-opacity="1">
<use xlink:href="#glyph-2-1" x="22.5" y="130.351562"/>
<use xlink:href="#glyph-2-2" x="27" y="130.351562"/>
<use xlink:href="#glyph-2-3" x="37.5" y="130.351562"/>
<use xlink:href="#glyph-2-4" x="48" y="130.351562"/>
<use xlink:href="#glyph-2-5" x="58.5" y="130.351562"/>
<use xlink:href="#glyph-2-6" x="63" y="130.351562"/>
<use xlink:href="#glyph-2-7" x="76.5" y="130.351562"/>
<use xlink:href="#glyph-2-8" x="85.5" y="130.351562"/>
</g>
<g fill="rgb(0%, 0%, 0%)" fill-opacity="1">
<use xlink:href="#glyph-1-16" x="15" y="177.367188"/>
<use xlink:href="#glyph-1-17" x="25.5" y="177.367188"/>
<use xlink:href="#glyph-1-9" x="37.5" y="177.367188"/>
<use xlink:href="#glyph-1-18" x="48" y="177.367188"/>
<use xlink:href="#glyph-1-14" x="55.5" y="177.367188"/>
<use xlink:href="#glyph-1-5" x="66" y="177.367188"/>
<use xlink:href="#glyph-1-19" x="70.5" y="177.367188"/>
<use xlink:href="#glyph-1-3" x="85.5" y="177.367188"/>
<use xlink:href="#glyph-1-4" x="91.5" y="177.367188"/>
<use xlink:href="#glyph-1-17" x="99" y="177.367188"/>
<use xlink:href="#glyph-1-5" x="111" y="177.367188"/>
<use xlink:href="#glyph-1-10" x="115.5" y="177.367188"/>
<use xlink:href="#glyph-1-7" x="124.5" y="177.367188"/>
<use xlink:href="#glyph-1-8" x="135" y="177.367188"/>
<use xlink:href="#glyph-1-4" x="147" y="177.367188"/>
<use xlink:href="#glyph-1-9" x="154.5" y="177.367188"/>
<use xlink:href="#glyph-1-10" x="165" y="177.367188"/>
<use xlink:href="#glyph-1-4" x="174" y="177.367188"/>
<use xlink:href="#glyph-1-20" x="181.5" y="177.367188"/>
<use xlink:href="#glyph-1-15" x="190.5" y="177.367188"/>
</g>
<path fill-rule="evenodd" fill="rgb(100%, 100%, 100%)" fill-opacity="1" stroke-width="1" stroke-linecap="round" stroke-linejoin="round" stroke="rgb(0%, 0%, 0%)" stroke-opacity="1" stroke-miterlimit="10" d="M 25 134.932292 C 27.760417 134.932292 30 137.171875 30 139.932292 L 30 149.932292 C 30 152.695312 27.760417 154.932292 25 154.932292 L 15 154.932292 C 12.239583 154.932292 10 152.695312 10 149.932292 L 10 139.932292 C 10 137.171875 12.239583 134.932292 15 134.932292 Z M 25 134.932292 " transform="matrix(1.5, 0, 0, 1.5, 0, 0)"/>
<g fill="rgb(68.627451%, 68.627451%, 68.627451%)" fill-opacity="1">
<use xlink:href="#glyph-3-1" x="23.25" y="226.128906"/>
</g>
<path fill-rule="evenodd" fill="rgb(100%, 100%, 100%)" fill-opacity="1" stroke-width="1" stroke-linecap="round" stroke-linejoin="round" stroke="rgb(68.627451%, 68.627451%, 68.627451%)" stroke-opacity="1" stroke-miterlimit="10" d="M 135 131.760417 C 137.760417 131.760417 140 134 140 136.760417 L 140 153.104167 C 140 155.867188 137.760417 158.104167 135 158.104167 L 45 158.104167 C 42.239583 158.104167 40 155.867188 40 153.104167 L 40 136.760417 C 40 134 42.239583 131.760417 45 131.760417 Z M 135 131.760417 " transform="matrix(1.5, 0, 0, 1.5, 0, 0)"/>
<path fill-rule="nonzero" fill="rgb(68.627451%, 68.627451%, 68.627451%)" fill-opacity="1" stroke-width="1" stroke-linecap="round" stroke-linejoin="round" stroke="rgb(68.627451%, 68.627451%, 68.627451%)" stroke-opacity="1" stroke-miterlimit="10" d="M 45 136.760417 L 98 136.760417 L 98 153.104167 L 45 153.104167 Z M 45 136.760417 " transform="matrix(1.5, 0, 0, 1.5, 0, 0)"/>
<g fill="rgb(100%, 100%, 100%)" fill-opacity="1">
<use xlink:href="#glyph-2-1" x="67.5" y="224.382812"/>
<use xlink:href="#glyph-2-2" x="72" y="224.382812"/>
<use xlink:href="#glyph-2-3" x="82.5" y="224.382812"/>
<use xlink:href="#glyph-2-4" x="93" y="224.382812"/>
<use xlink:href="#glyph-2-5" x="103.5" y="224.382812"/>
<use xlink:href="#glyph-2-6" x="108" y="224.382812"/>
<use xlink:href="#glyph-2-7" x="121.5" y="224.382812"/>
<use xlink:href="#glyph-2-8" x="130.5" y="224.382812"/>
</g>
<path fill-rule="evenodd" fill="rgb(74.509804%, 74.509804%, 74.509804%)" fill-opacity="1" d="M 115.5 256.65625 C 119.640625 256.65625 123 260.015625 123 264.15625 L 123 288.671875 C 123 292.816406 119.640625 296.171875 115.5 296.171875 L 25.5 296.171875 C 21.359375 296.171875 18 292.816406 18 288.671875 L 18 264.15625 C 18 260.015625 21.359375 256.65625 25.5 256.65625 Z M 115.5 256.65625 "/>
<path fill-rule="evenodd" fill="rgb(100%, 100%, 100%)" fill-opacity="1" stroke-width="1" stroke-linecap="round" stroke-linejoin="round" stroke="rgb(0%, 0%, 0%)" stroke-opacity="1" stroke-miterlimit="10" d="M 76 169.604167 C 78.760417 169.604167 81 171.84375 81 174.604167 L 81 190.947917 C 81 193.710938 78.760417 195.947917 76 195.947917 L 16 195.947917 C 13.239583 195.947917 11 193.710938 11 190.947917 L 11 174.604167 C 11 171.84375 13.239583 169.604167 16 169.604167 Z M 76 169.604167 " transform="matrix(1.5, 0, 0, 1.5, 0, 0)"/>
<g fill="rgb(0%, 0%, 0%)" fill-opacity="1">
<use xlink:href="#glyph-2-9" x="48.75" y="281.148438"/>
<use xlink:href="#glyph-2-2" x="59.25" y="281.148438"/>
<use xlink:href="#glyph-2-10" x="69.75" y="281.148438"/>
<use xlink:href="#glyph-2-4" x="78.75" y="281.148438"/>
</g>
</svg>
